^D:\PROJECTS\DMPRINTERTEST\TXPRINTERTEST\STDAFX.CPP
C:\WINDOWS\GLOBALIZATION\SORTING\SORTDEFAULT.NLS
C:\PROGRAM FILES (X86)\MICROSOFT VISUAL STUDIO 14.0\VC\BIN\2052\CLUI.DLL
C:\WINDOWS\SYSTEM32\TZRES.DLL
D:\PROJECTS\DMPRINTERTEST\TXPRINTERTEST\STDAFX.H
D:\PROJECTS\DMPRINTERTEST\TXPRINTERTEST\TARGETVER.H
C:\PROGRAM FILES (X86)\MICROSOFT SDKS\WINDOWS\V7.1A\INCLUDE\SDKDDKVER.H
C:\PROGRAM FILES (X86)\MICROSOFT VISUAL STUDIO 14.0\VC\ATLMFC\INCLUDE\AFXWIN.H
C:\PROGRAM FILES (X86)\MICROSOFT VISUAL STUDIO 14.0\VC\ATLMFC\INCLUDE\AFX.H
C:\PROGRAM FILES (X86)\WINDOWS KITS\10\INCLUDE\10.0.10240.0\UCRT\NEW.H
C:\PROGRAM FILES (X86)\WINDOWS KITS\10\INCLUDE\10.0.10240.0\UCRT\CORECRT.H
C:\PROGRAM FILES (X86)\MICROSOFT VISUAL STUDIO 14.0\VC\INCLUDE\VCRUNTIME.H
C:\PROGRAM FILES (X86)\MICROSOFT VISUAL STUDIO 14.0\VC\INCLUDE\SAL.H
C:\PROGRAM FILES (X86)\MICROSOFT VISUAL STUDIO 14.0\VC\INCLUDE\CONCURRENCYSAL.H
C:\PROGRAM FILES (X86)\MICROSOFT VISUAL STUDIO 14.0\VC\INCLUDE\VADEFS.H
C:\PROGRAM FILES (X86)\MICROSOFT VISUAL STUDIO 14.0\VC\INCLUDE\VCRUNTIME_NEW_DEBUG.H
C:\PROGRAM FILES (X86)\MICROSOFT VISUAL STUDIO 14.0\VC\INCLUDE\VCRUNTIME_NEW.H
C:\PROGRAM FILES (X86)\MICROSOFT VISUAL STUDIO 14.0\VC\INCLUDE\CRTDEFS.H
C:\PROGRAM FILES (X86)\MICROSOFT VISUAL STUDIO 14.0\VC\ATLMFC\INCLUDE\AFXVER_.H
C:\PROGRAM FILES (X86)\MICROSOFT VISUAL STUDIO 14.0\VC\ATLMFC\INCLUDE\AFXV_W32.H
C:\PROGRAM FILES (X86)\MICROSOFT SDKS\WINDOWS\V7.1A\INCLUDE\WINSDKVER.H
C:\PROGRAM FILES (X86)\MICROSOFT SDKS\WINDOWS\V7.1A\INCLUDE\WINDOWS.H
C:\PROGRAM FILES (X86)\MICROSOFT VISUAL STUDIO 14.0\VC\INCLUDE\EXCPT.H
C:\PROGRAM FILES (X86)\MICROSOFT VISUAL STUDIO 14.0\VC\INCLUDE\STDARG.H
C:\PROGRAM FILES (X86)\MICROSOFT SDKS\WINDOWS\V7.1A\INCLUDE\WINDEF.H
C:\PROGRAM FILES (X86)\MICROSOFT SDKS\WINDOWS\V7.1A\INCLUDE\WINNT.H
C:\PROGRAM FILES (X86)\WINDOWS KITS\10\INCLUDE\10.0.10240.0\UCRT\CTYPE.H
C:\PROGRAM FILES (X86)\WINDOWS KITS\10\INCLUDE\10.0.10240.0\UCRT\CORECRT_WCTYPE.H
C:\PROGRAM FILES (X86)\MICROSOFT SDKS\WINDOWS\V7.1A\INCLUDE\SPECSTRINGS.H
C:\PROGRAM FILES (X86)\MICROSOFT SDKS\WINDOWS\V7.1A\INCLUDE\SAL_SUPP.H
C:\PROGRAM FILES (X86)\MICROSOFT SDKS\WINDOWS\V7.1A\INCLUDE\SPECSTRINGS_SUPP.H
C:\PROGRAM FILES (X86)\MICROSOFT SDKS\WINDOWS\V7.1A\INCLUDE\SPECSTRINGS_STRICT.H
C:\PROGRAM FILES (X86)\MICROSOFT SDKS\WINDOWS\V7.1A\INCLUDE\SPECSTRINGS_UNDEF.H
C:\PROGRAM FILES (X86)\MICROSOFT SDKS\WINDOWS\V7.1A\INCLUDE\DRIVERSPECS.H
C:\PROGRAM FILES (X86)\MICROSOFT SDKS\WINDOWS\V7.1A\INCLUDE\SDV_DRIVERSPECS.H
C:\PROGRAM FILES (X86)\MICROSOFT SDKS\WINDOWS\V7.1A\INCLUDE\KERNELSPECS.H
C:\PROGRAM FILES (X86)\MICROSOFT SDKS\WINDOWS\V7.1A\INCLUDE\BASETSD.H
C:\PROGRAM FILES (X86)\MICROSOFT SDKS\WINDOWS\V7.1A\INCLUDE\GUIDDEF.H
C:\PROGRAM FILES (X86)\WINDOWS KITS\10\INCLUDE\10.0.10240.0\UCRT\STRING.H
C:\PROGRAM FILES (X86)\WINDOWS KITS\10\INCLUDE\10.0.10240.0\UCRT\CORECRT_MEMORY.H
C:\PROGRAM FILES (X86)\WINDOWS KITS\10\INCLUDE\10.0.10240.0\UCRT\CORECRT_MEMCPY_S.H
C:\PROGRAM FILES (X86)\WINDOWS KITS\10\INCLUDE\10.0.10240.0\UCRT\ERRNO.H
C:\PROGRAM FILES (X86)\MICROSOFT VISUAL STUDIO 14.0\VC\INCLUDE\VCRUNTIME_STRING.H
C:\PROGRAM FILES (X86)\WINDOWS KITS\10\INCLUDE\10.0.10240.0\UCRT\CORECRT_WSTRING.H
C:\PROGRAM FILES (X86)\MICROSOFT SDKS\WINDOWS\V7.1A\INCLUDE\PSHPACK4.H
C:\PROGRAM FILES (X86)\MICROSOFT SDKS\WINDOWS\V7.1A\INCLUDE\POPPACK.H
C:\PROGRAM FILES (X86)\MICROSOFT SDKS\WINDOWS\V7.1A\INCLUDE\PSHPACK2.H
C:\PROGRAM FILES (X86)\MICROSOFT SDKS\WINDOWS\V7.1A\INCLUDE\PSHPACK8.H
C:\PROGRAM FILES (X86)\MICROSOFT SDKS\WINDOWS\V7.1A\INCLUDE\KTMTYPES.H
C:\PROGRAM FILES (X86)\MICROSOFT SDKS\WINDOWS\V7.1A\INCLUDE\WINBASE.H
C:\PROGRAM FILES (X86)\MICROSOFT SDKS\WINDOWS\V7.1A\INCLUDE\WINERROR.H
C:\PROGRAM FILES (X86)\MICROSOFT SDKS\WINDOWS\V7.1A\INCLUDE\WINGDI.H
C:\PROGRAM FILES (X86)\MICROSOFT SDKS\WINDOWS\V7.1A\INCLUDE\PSHPACK1.H
C:\PROGRAM FILES (X86)\MICROSOFT SDKS\WINDOWS\V7.1A\INCLUDE\WINUSER.H
C:\PROGRAM FILES (X86)\MICROSOFT SDKS\WINDOWS\V7.1A\INCLUDE\TVOUT.H
C:\PROGRAM FILES (X86)\MICROSOFT SDKS\WINDOWS\V7.1A\INCLUDE\WINNLS.H
C:\PROGRAM FILES (X86)\MICROSOFT SDKS\WINDOWS\V7.1A\INCLUDE\WINCON.H
C:\PROGRAM FILES (X86)\MICROSOFT SDKS\WINDOWS\V7.1A\INCLUDE\WINVER.H
C:\PROGRAM FILES (X86)\MICROSOFT SDKS\WINDOWS\V7.1A\INCLUDE\VERRSRC.H
C:\PROGRAM FILES (X86)\MICROSOFT SDKS\WINDOWS\V7.1A\INCLUDE\WINREG.H
C:\PROGRAM FILES (X86)\MICROSOFT SDKS\WINDOWS\V7.1A\INCLUDE\REASON.H
C:\PROGRAM FILES (X86)\MICROSOFT SDKS\WINDOWS\V7.1A\INCLUDE\WINNETWK.H
C:\PROGRAM FILES (X86)\MICROSOFT SDKS\WINDOWS\V7.1A\INCLUDE\WNNC.H
C:\PROGRAM FILES (X86)\MICROSOFT SDKS\WINDOWS\V7.1A\INCLUDE\STRALIGN.H
C:\PROGRAM FILES (X86)\MICROSOFT SDKS\WINDOWS\V7.1A\INCLUDE\ZMOUSE.H
C:\PROGRAM FILES (X86)\MICROSOFT SDKS\WINDOWS\V7.1A\INCLUDE\COMMCTRL.H
C:\PROGRAM FILES (X86)\MICROSOFT SDKS\WINDOWS\V7.1A\INCLUDE\PRSHT.H
C:\PROGRAM FILES (X86)\WINDOWS KITS\10\INCLUDE\10.0.10240.0\UCRT\TCHAR.H
C:\PROGRAM FILES (X86)\WINDOWS KITS\10\INCLUDE\10.0.10240.0\UCRT\WCHAR.H
C:\PROGRAM FILES (X86)\WINDOWS KITS\10\INCLUDE\10.0.10240.0\UCRT\CORECRT_WCONIO.H
C:\PROGRAM FILES (X86)\WINDOWS KITS\10\INCLUDE\10.0.10240.0\UCRT\CORECRT_STDIO_CONFIG.H
C:\PROGRAM FILES (X86)\WINDOWS KITS\10\INCLUDE\10.0.10240.0\UCRT\CORECRT_WDIRECT.H
C:\PROGRAM FILES (X86)\WINDOWS KITS\10\INCLUDE\10.0.10240.0\UCRT\CORECRT_WIO.H
C:\PROGRAM FILES (X86)\WINDOWS KITS\10\INCLUDE\10.0.10240.0\UCRT\CORECRT_SHARE.H
C:\PROGRAM FILES (X86)\WINDOWS KITS\10\INCLUDE\10.0.10240.0\UCRT\CORECRT_WPROCESS.H
C:\PROGRAM FILES (X86)\WINDOWS KITS\10\INCLUDE\10.0.10240.0\UCRT\CORECRT_WSTDIO.H
C:\PROGRAM FILES (X86)\WINDOWS KITS\10\INCLUDE\10.0.10240.0\UCRT\CORECRT_WSTDLIB.H
C:\PROGRAM FILES (X86)\WINDOWS KITS\10\INCLUDE\10.0.10240.0\UCRT\CORECRT_WTIME.H
C:\PROGRAM FILES (X86)\WINDOWS KITS\10\INCLUDE\10.0.10240.0\UCRT\SYS\STAT.H
C:\PROGRAM FILES (X86)\WINDOWS KITS\10\INCLUDE\10.0.10240.0\UCRT\SYS\TYPES.H
C:\PROGRAM FILES (X86)\WINDOWS KITS\10\INCLUDE\10.0.10240.0\UCRT\STDIO.H
C:\PROGRAM FILES (X86)\WINDOWS KITS\10\INCLUDE\10.0.10240.0\UCRT\STDLIB.H
C:\PROGRAM FILES (X86)\WINDOWS KITS\10\INCLUDE\10.0.10240.0\UCRT\CORECRT_MALLOC.H
C:\PROGRAM FILES (X86)\WINDOWS KITS\10\INCLUDE\10.0.10240.0\UCRT\CORECRT_SEARCH.H
C:\PROGRAM FILES (X86)\WINDOWS KITS\10\INCLUDE\10.0.10240.0\UCRT\STDDEF.H
C:\PROGRAM FILES (X86)\MICROSOFT VISUAL STUDIO 14.0\VC\INCLUDE\LIMITS.H
C:\PROGRAM FILES (X86)\WINDOWS KITS\10\INCLUDE\10.0.10240.0\UCRT\TIME.H
C:\PROGRAM FILES (X86)\WINDOWS KITS\10\INCLUDE\10.0.10240.0\UCRT\MALLOC.H
C:\PROGRAM FILES (X86)\WINDOWS KITS\10\INCLUDE\10.0.10240.0\UCRT\CRTDBG.H
C:\PROGRAM FILES (X86)\MICROSOFT VISUAL STUDIO 14.0\VC\ATLMFC\INCLUDE\AFXSTR.H
C:\PROGRAM FILES (X86)\WINDOWS KITS\10\INCLUDE\10.0.10240.0\UCRT\MBSTRING.H
C:\PROGRAM FILES (X86)\MICROSOFT VISUAL STUDIO 14.0\VC\ATLMFC\INCLUDE\ATLCORE.H
C:\PROGRAM FILES (X86)\MICROSOFT VISUAL STUDIO 14.0\VC\ATLMFC\INCLUDE\ATLDEF.H
C:\PROGRAM FILES (X86)\MICROSOFT VISUAL STUDIO 14.0\VC\ATLMFC\INCLUDE\ATLRC.H
C:\PROGRAM FILES (X86)\MICROSOFT SDKS\WINDOWS\V7.1A\INCLUDE\OLE2.H
C:\PROGRAM FILES (X86)\MICROSOFT SDKS\WINDOWS\V7.1A\INCLUDE\OBJBASE.H
C:\PROGRAM FILES (X86)\MICROSOFT SDKS\WINDOWS\V7.1A\INCLUDE\RPC.H
C:\PROGRAM FILES (X86)\MICROSOFT SDKS\WINDOWS\V7.1A\INCLUDE\RPCDCE.H
C:\PROGRAM FILES (X86)\MICROSOFT SDKS\WINDOWS\V7.1A\INCLUDE\RPCDCEP.H
C:\PROGRAM FILES (X86)\MICROSOFT SDKS\WINDOWS\V7.1A\INCLUDE\RPCNSI.H
C:\PROGRAM FILES (X86)\MICROSOFT SDKS\WINDOWS\V7.1A\INCLUDE\RPCNTERR.H
C:\PROGRAM FILES (X86)\MICROSOFT SDKS\WINDOWS\V7.1A\INCLUDE\RPCASYNC.H
C:\PROGRAM FILES (X86)\MICROSOFT SDKS\WINDOWS\V7.1A\INCLUDE\RPCNDR.H
C:\PROGRAM FILES (X86)\MICROSOFT SDKS\WINDOWS\V7.1A\INCLUDE\RPCNSIP.H
C:\PROGRAM FILES (X86)\MICROSOFT SDKS\WINDOWS\V7.1A\INCLUDE\RPCSAL.H
C:\PROGRAM FILES (X86)\MICROSOFT SDKS\WINDOWS\V7.1A\INCLUDE\WTYPES.H
C:\PROGRAM FILES (X86)\MICROSOFT SDKS\WINDOWS\V7.1A\INCLUDE\UNKNWN.H
C:\PROGRAM FILES (X86)\MICROSOFT SDKS\WINDOWS\V7.1A\INCLUDE\OBJIDL.H
C:\PROGRAM FILES (X86)\MICROSOFT SDKS\WINDOWS\V7.1A\INCLUDE\CGUID.H
C:\PROGRAM FILES (X86)\MICROSOFT SDKS\WINDOWS\V7.1A\INCLUDE\URLMON.H
C:\PROGRAM FILES (X86)\MICROSOFT SDKS\WINDOWS\V7.1A\INCLUDE\OLEIDL.H
C:\PROGRAM FILES (X86)\MICROSOFT SDKS\WINDOWS\V7.1A\INCLUDE\SERVPROV.H
C:\PROGRAM FILES (X86)\MICROSOFT SDKS\WINDOWS\V7.1A\INCLUDE\MSXML.H
C:\PROGRAM FILES (X86)\MICROSOFT SDKS\WINDOWS\V7.1A\INCLUDE\OAIDL.H
C:\PROGRAM FILES (X86)\MICROSOFT SDKS\WINDOWS\V7.1A\INCLUDE\PROPIDL.H
C:\PROGRAM FILES (X86)\MICROSOFT SDKS\WINDOWS\V7.1A\INCLUDE\OLEAUTO.H
C:\PROGRAM FILES (X86)\MICROSOFT VISUAL STUDIO 14.0\VC\ATLMFC\INCLUDE\ATLCHECKED.H
C:\PROGRAM FILES (X86)\MICROSOFT VISUAL STUDIO 14.0\VC\ATLMFC\INCLUDE\ATLEXCEPT.H
C:\PROGRAM FILES (X86)\MICROSOFT VISUAL STUDIO 14.0\VC\ATLMFC\INCLUDE\ATLTRACE.H
C:\PROGRAM FILES (X86)\MICROSOFT VISUAL STUDIO 14.0\VC\ATLMFC\INCLUDE\ATLCONV.H
C:\PROGRAM FILES (X86)\MICROSOFT VISUAL STUDIO 14.0\VC\ATLMFC\INCLUDE\ATLALLOC.H
C:\PROGRAM FILES (X86)\MICROSOFT VISUAL STUDIO 14.0\VC\ATLMFC\INCLUDE\ATLSIMPCOLL.H
C:\PROGRAM FILES (X86)\MICROSOFT VISUAL STUDIO 14.0\VC\ATLMFC\INCLUDE\ATLWINVERAPI.H
C:\PROGRAM FILES (X86)\MICROSOFT VISUAL STUDIO 14.0\VC\ATLMFC\INCLUDE\CSTRINGT.H
C:\PROGRAM FILES (X86)\MICROSOFT VISUAL STUDIO 14.0\VC\ATLMFC\INCLUDE\ATLSIMPSTR.H
C:\PROGRAM FILES (X86)\MICROSOFT VISUAL STUDIO 14.0\VC\ATLMFC\INCLUDE\ATLMEM.H
C:\PROGRAM FILES (X86)\MICROSOFT VISUAL STUDIO 14.0\VC\ATLMFC\INCLUDE\ATLCOMMEM.H
C:\PROGRAM FILES (X86)\MICROSOFT VISUAL STUDIO 14.0\VC\ATLMFC\INCLUDE\ATLCOMCLI.H
C:\PROGRAM FILES (X86)\MICROSOFT SDKS\WINDOWS\V7.1A\INCLUDE\OLECTL.H
C:\PROGRAM FILES (X86)\MICROSOFT SDKS\WINDOWS\V7.1A\INCLUDE\OCIDL.H
C:\PROGRAM FILES (X86)\MICROSOFT VISUAL STUDIO 14.0\VC\INCLUDE\INTRIN.H
C:\PROGRAM FILES (X86)\MICROSOFT VISUAL STUDIO 14.0\VC\INCLUDE\SETJMP.H
C:\PROGRAM FILES (X86)\MICROSOFT VISUAL STUDIO 14.0\VC\INCLUDE\IMMINTRIN.H
C:\PROGRAM FILES (X86)\MICROSOFT VISUAL STUDIO 14.0\VC\INCLUDE\WMMINTRIN.H
C:\PROGRAM FILES (X86)\MICROSOFT VISUAL STUDIO 14.0\VC\INCLUDE\NMMINTRIN.H
C:\PROGRAM FILES (X86)\MICROSOFT VISUAL STUDIO 14.0\VC\INCLUDE\SMMINTRIN.H
C:\PROGRAM FILES (X86)\MICROSOFT VISUAL STUDIO 14.0\VC\INCLUDE\TMMINTRIN.H
C:\PROGRAM FILES (X86)\MICROSOFT VISUAL STUDIO 14.0\VC\INCLUDE\PMMINTRIN.H
C:\PROGRAM FILES (X86)\MICROSOFT VISUAL STUDIO 14.0\VC\INCLUDE\EMMINTRIN.H
C:\PROGRAM FILES (X86)\MICROSOFT VISUAL STUDIO 14.0\VC\INCLUDE\XMMINTRIN.H
C:\PROGRAM FILES (X86)\MICROSOFT VISUAL STUDIO 14.0\VC\INCLUDE\MMINTRIN.H
C:\PROGRAM FILES (X86)\MICROSOFT VISUAL STUDIO 14.0\VC\INCLUDE\AMMINTRIN.H
C:\PROGRAM FILES (X86)\MICROSOFT VISUAL STUDIO 14.0\VC\INCLUDE\MM3DNOW.H
C:\PROGRAM FILES (X86)\MICROSOFT VISUAL STUDIO 14.0\VC\ATLMFC\INCLUDE\ATLTRANSACTIONMANAGER.H
C:\PROGRAM FILES (X86)\MICROSOFT SDKS\WINDOWS\V7.1A\INCLUDE\KTMW32.H
C:\PROGRAM FILES (X86)\MICROSOFT VISUAL STUDIO 14.0\VC\ATLMFC\INCLUDE\ATLTIME.H
C:\PROGRAM FILES (X86)\MICROSOFT SDKS\WINDOWS\V7.1A\INCLUDE\OLEDB.H
C:\PROGRAM FILES (X86)\MICROSOFT SDKS\WINDOWS\V7.1A\INCLUDE\TRANSACT.H
C:\PROGRAM FILES (X86)\MICROSOFT SDKS\WINDOWS\V7.1A\INCLUDE\ACCCTRL.H
C:\PROGRAM FILES (X86)\MICROSOFT VISUAL STUDIO 14.0\VC\ATLMFC\INCLUDE\AFXCOLL.H
C:\PROGRAM FILES (X86)\MICROSOFT VISUAL STUDIO 14.0\VC\ATLMFC\INCLUDE\AFXSTAT_.H
C:\PROGRAM FILES (X86)\MICROSOFT VISUAL STUDIO 14.0\VC\ATLMFC\INCLUDE\ATLTYPES.H
C:\PROGRAM FILES (X86)\MICROSOFT VISUAL STUDIO 14.0\VC\ATLMFC\INCLUDE\AFXTLS_.H
C:\PROGRAM FILES (X86)\MICROSOFT VISUAL STUDIO 14.0\VC\ATLMFC\INCLUDE\AFXCOLL.INL
C:\PROGRAM FILES (X86)\MICROSOFT VISUAL STUDIO 14.0\VC\ATLMFC\INCLUDE\AFX.INL
C:\PROGRAM FILES (X86)\MICROSOFT SDKS\WINDOWS\V7.1A\INCLUDE\SHELLAPI.H
C:\PROGRAM FILES (X86)\MICROSOFT VISUAL STUDIO 14.0\VC\ATLMFC\INCLUDE\AFXRES.H
C:\PROGRAM FILES (X86)\MICROSOFT SDKS\WINDOWS\V7.1A\INCLUDE\COMMDLG.H
C:\PROGRAM FILES (X86)\MICROSOFT VISUAL STUDIO 14.0\VC\ATLMFC\INCLUDE\AFXCTRLCONTAINER.H
C:\PROGRAM FILES (X86)\MICROSOFT SDKS\WINDOWS\V7.1A\INCLUDE\SHOBJIDL.H
C:\PROGRAM FILES (X86)\MICROSOFT SDKS\WINDOWS\V7.1A\INCLUDE\DOCOBJ.H
C:\PROGRAM FILES (X86)\MICROSOFT SDKS\WINDOWS\V7.1A\INCLUDE\SHTYPES.H
C:\PROGRAM FILES (X86)\MICROSOFT SDKS\WINDOWS\V7.1A\INCLUDE\COMCAT.H
C:\PROGRAM FILES (X86)\MICROSOFT SDKS\WINDOWS\V7.1A\INCLUDE\PROPSYS.H
C:\PROGRAM FILES (X86)\MICROSOFT SDKS\WINDOWS\V7.1A\INCLUDE\STRUCTUREDQUERYCONDITION.H
C:\PROGRAM FILES (X86)\MICROSOFT SDKS\WINDOWS\V7.1A\INCLUDE\PROPKEYDEF.H
C:\PROGRAM FILES (X86)\MICROSOFT SDKS\WINDOWS\V7.1A\INCLUDE\OBJECTARRAY.H
C:\PROGRAM FILES (X86)\MICROSOFT SDKS\WINDOWS\V7.1A\INCLUDE\SHERRORS.H
C:\PROGRAM FILES (X86)\MICROSOFT SDKS\WINDOWS\V7.1A\INCLUDE\THUMBCACHE.H
C:\PROGRAM FILES (X86)\MICROSOFT VISUAL STUDIO 14.0\VC\ATLMFC\INCLUDE\ATLHANDLER.H
C:\PROGRAM FILES (X86)\MICROSOFT SDKS\WINDOWS\V7.1A\INCLUDE\FILTER.H
C:\PROGRAM FILES (X86)\MICROSOFT VISUAL STUDIO 14.0\VC\ATLMFC\INCLUDE\ATLSTR.H
C:\PROGRAM FILES (X86)\MICROSOFT VISUAL STUDIO 14.0\VC\ATLMFC\INCLUDE\ATLBASE.H
C:\PROGRAM FILES (X86)\MICROSOFT SDKS\WINDOWS\V7.1A\INCLUDE\WINSOCK2.H
C:\PROGRAM FILES (X86)\MICROSOFT SDKS\WINDOWS\V7.1A\INCLUDE\WS2DEF.H
C:\PROGRAM FILES (X86)\MICROSOFT SDKS\WINDOWS\V7.1A\INCLUDE\INADDR.H
C:\PROGRAM FILES (X86)\MICROSOFT SDKS\WINDOWS\V7.1A\INCLUDE\QOS.H
C:\PROGRAM FILES (X86)\MICROSOFT VISUAL STUDIO 14.0\VC\ATLMFC\INCLUDE\ATLIFACE.H
C:\PROGRAM FILES (X86)\MICROSOFT SDKS\WINDOWS\V7.1A\INCLUDE\OLEACC.H
C:\PROGRAM FILES (X86)\WINDOWS KITS\10\INCLUDE\10.0.10240.0\UCRT\PROCESS.H
C:\PROGRAM FILES (X86)\WINDOWS KITS\10\INCLUDE\10.0.10240.0\UCRT\CORECRT_STARTUP.H
C:\PROGRAM FILES (X86)\WINDOWS KITS\10\INCLUDE\10.0.10240.0\UCRT\MATH.H
C:\PROGRAM FILES (X86)\MICROSOFT VISUAL STUDIO 14.0\VC\INCLUDE\VCRUNTIME_STARTUP.H
C:\PROGRAM FILES (X86)\MICROSOFT VISUAL STUDIO 14.0\VC\INCLUDE\STDBOOL.H
C:\PROGRAM FILES (X86)\MICROSOFT SDKS\WINDOWS\V7.1A\INCLUDE\SHLWAPI.H
C:\PROGRAM FILES (X86)\MICROSOFT VISUAL STUDIO 14.0\VC\ATLMFC\INCLUDE\STATREG.H
C:\PROGRAM FILES (X86)\MICROSOFT SDKS\WINDOWS\V7.1A\INCLUDE\TPCSHRD.H
C:\PROGRAM FILES (X86)\MICROSOFT SDKS\WINDOWS\V7.1A\INCLUDE\VSSYM32.H
C:\PROGRAM FILES (X86)\MICROSOFT SDKS\WINDOWS\V7.1A\INCLUDE\VSSTYLE.H
C:\PROGRAM FILES (X86)\MICROSOFT SDKS\WINDOWS\V7.1A\INCLUDE\WS2IPDEF.H
C:\PROGRAM FILES (X86)\MICROSOFT SDKS\WINDOWS\V7.1A\INCLUDE\IN6ADDR.H
C:\PROGRAM FILES (X86)\MICROSOFT SDKS\WINDOWS\V7.1A\INCLUDE\WINDNS.H
C:\PROGRAM FILES (X86)\MICROSOFT SDKS\WINDOWS\V7.1A\INCLUDE\IPHLPAPI.H
C:\PROGRAM FILES (X86)\MICROSOFT SDKS\WINDOWS\V7.1A\INCLUDE\IPRTRMIB.H
C:\PROGRAM FILES (X86)\MICROSOFT SDKS\WINDOWS\V7.1A\INCLUDE\MPRAPI.H
C:\PROGRAM FILES (X86)\MICROSOFT SDKS\WINDOWS\V7.1A\INCLUDE\LMCONS.H
C:\PROGRAM FILES (X86)\MICROSOFT SDKS\WINDOWS\V7.1A\INCLUDE\RAS.H
C:\PROGRAM FILES (X86)\MICROSOFT SDKS\WINDOWS\V7.1A\INCLUDE\WINCRYPT.H
C:\PROGRAM FILES (X86)\MICROSOFT SDKS\WINDOWS\V7.1A\INCLUDE\BCRYPT.H
C:\PROGRAM FILES (X86)\MICROSOFT SDKS\WINDOWS\V7.1A\INCLUDE\NCRYPT.H
C:\PROGRAM FILES (X86)\MICROSOFT SDKS\WINDOWS\V7.1A\INCLUDE\IPIFCONS.H
C:\PROGRAM FILES (X86)\MICROSOFT SDKS\WINDOWS\V7.1A\INCLUDE\IPMIB.H
C:\PROGRAM FILES (X86)\MICROSOFT SDKS\WINDOWS\V7.1A\INCLUDE\IFMIB.H
C:\PROGRAM FILES (X86)\MICROSOFT SDKS\WINDOWS\V7.1A\INCLUDE\IFDEF.H
C:\PROGRAM FILES (X86)\MICROSOFT SDKS\WINDOWS\V7.1A\INCLUDE\NLDEF.H
C:\PROGRAM FILES (X86)\MICROSOFT SDKS\WINDOWS\V7.1A\INCLUDE\TCPMIB.H
C:\PROGRAM FILES (X86)\MICROSOFT SDKS\WINDOWS\V7.1A\INCLUDE\UDPMIB.H
C:\PROGRAM FILES (X86)\MICROSOFT SDKS\WINDOWS\V7.1A\INCLUDE\IPEXPORT.H
C:\PROGRAM FILES (X86)\MICROSOFT SDKS\WINDOWS\V7.1A\INCLUDE\PACKON.H
C:\PROGRAM FILES (X86)\MICROSOFT SDKS\WINDOWS\V7.1A\INCLUDE\PACKOFF.H
C:\PROGRAM FILES (X86)\MICROSOFT SDKS\WINDOWS\V7.1A\INCLUDE\IPTYPES.H
C:\PROGRAM FILES (X86)\MICROSOFT SDKS\WINDOWS\V7.1A\INCLUDE\TCPESTATS.H
C:\PROGRAM FILES (X86)\MICROSOFT SDKS\WINDOWS\V7.1A\INCLUDE\NETIOAPI.H
C:\PROGRAM FILES (X86)\MICROSOFT SDKS\WINDOWS\V7.1A\INCLUDE\NTDDNDIS.H
C:\PROGRAM FILES (X86)\MICROSOFT SDKS\WINDOWS\V7.1A\INCLUDE\DEVPKEY.H
C:\PROGRAM FILES (X86)\MICROSOFT SDKS\WINDOWS\V7.1A\INCLUDE\DEVPROPDEF.H
C:\PROGRAM FILES (X86)\MICROSOFT SDKS\WINDOWS\V7.1A\INCLUDE\PCIPROP.H
C:\PROGRAM FILES (X86)\MICROSOFT SDKS\WINDOWS\V7.1A\INCLUDE\WINDOT11.H
C:\PROGRAM FILES (X86)\MICROSOFT SDKS\WINDOWS\V7.1A\INCLUDE\WLANTYPES.H
C:\PROGRAM FILES (X86)\MICROSOFT SDKS\WINDOWS\V7.1A\INCLUDE\DWMAPI.H
C:\PROGRAM FILES (X86)\MICROSOFT SDKS\WINDOWS\V7.1A\INCLUDE\UXTHEME.H
C:\PROGRAM FILES (X86)\MICROSOFT SDKS\WINDOWS\V7.1A\INCLUDE\HTMLHELP.H
C:\PROGRAM FILES (X86)\MICROSOFT SDKS\WINDOWS\V7.1A\INCLUDE\UIANIMATION.H
C:\PROGRAM FILES (X86)\MICROSOFT VISUAL STUDIO 14.0\VC\ATLMFC\INCLUDE\AFXANIMATIONCONTROLLER.H
C:\PROGRAM FILES (X86)\MICROSOFT VISUAL STUDIO 14.0\VC\ATLMFC\INCLUDE\AFXANIMATIONHELPER.H
C:\PROGRAM FILES (X86)\MICROSOFT VISUAL STUDIO 14.0\VC\ATLMFC\INCLUDE\AFXTEMPL.H
C:\PROGRAM FILES (X86)\MICROSOFT VISUAL STUDIO 14.0\VC\ATLMFC\INCLUDE\AFXPLEX_.H
C:\PROGRAM FILES (X86)\MICROSOFT VISUAL STUDIO 14.0\VC\ATLMFC\INCLUDE\AFXMSG_.H
C:\PROGRAM FILES (X86)\MICROSOFT VISUAL STUDIO 14.0\VC\ATLMFC\INCLUDE\AFXDD_.H
C:\PROGRAM FILES (X86)\MICROSOFT VISUAL STUDIO 14.0\VC\ATLMFC\INCLUDE\AFXRENDERTARGET.H
C:\PROGRAM FILES (X86)\MICROSOFT SDKS\WINDOWS\V7.1A\INCLUDE\D3D9TYPES.H
C:\PROGRAM FILES (X86)\WINDOWS KITS\10\INCLUDE\10.0.10240.0\UCRT\FLOAT.H
C:\PROGRAM FILES (X86)\MICROSOFT SDKS\WINDOWS\V7.1A\INCLUDE\DXGITYPE.H
C:\PROGRAM FILES (X86)\MICROSOFT SDKS\WINDOWS\V7.1A\INCLUDE\DXGIFORMAT.H
C:\PROGRAM FILES (X86)\MICROSOFT SDKS\WINDOWS\V7.1A\INCLUDE\D2D1.H
C:\PROGRAM FILES (X86)\MICROSOFT SDKS\WINDOWS\V7.1A\INCLUDE\DCOMMON.H
C:\PROGRAM FILES (X86)\MICROSOFT SDKS\WINDOWS\V7.1A\INCLUDE\D2DERR.H
C:\PROGRAM FILES (X86)\MICROSOFT SDKS\WINDOWS\V7.1A\INCLUDE\D2DBASETYPES.H
C:\PROGRAM FILES (X86)\MICROSOFT SDKS\WINDOWS\V7.1A\INCLUDE\D3D10_1.H
C:\PROGRAM FILES (X86)\MICROSOFT SDKS\WINDOWS\V7.1A\INCLUDE\D3D10.H
C:\PROGRAM FILES (X86)\MICROSOFT SDKS\WINDOWS\V7.1A\INCLUDE\DXGI.H
C:\PROGRAM FILES (X86)\MICROSOFT SDKS\WINDOWS\V7.1A\INCLUDE\D3D10SDKLAYERS.H
C:\PROGRAM FILES (X86)\MICROSOFT SDKS\WINDOWS\V7.1A\INCLUDE\D3D10MISC.H
C:\PROGRAM FILES (X86)\MICROSOFT SDKS\WINDOWS\V7.1A\INCLUDE\D3D10SHADER.H
C:\PROGRAM FILES (X86)\MICROSOFT SDKS\WINDOWS\V7.1A\INCLUDE\D3D10EFFECT.H
C:\PROGRAM FILES (X86)\MICROSOFT SDKS\WINDOWS\V7.1A\INCLUDE\D3D10_1SHADER.H
C:\PROGRAM FILES (X86)\MICROSOFT SDKS\WINDOWS\V7.1A\INCLUDE\D2D1HELPER.H
C:\PROGRAM FILES (X86)\MICROSOFT SDKS\WINDOWS\V7.1A\INCLUDE\DWRITE.H
C:\PROGRAM FILES (X86)\MICROSOFT SDKS\WINDOWS\V7.1A\INCLUDE\WINCODEC.H
C:\PROGRAM FILES (X86)\MICROSOFT SDKS\WINDOWS\V7.1A\INCLUDE\INTSAFE.H
C:\PROGRAM FILES (X86)\MICROSOFT VISUAL STUDIO 14.0\VC\ATLMFC\INCLUDE\AFXWIN1.INL
C:\PROGRAM FILES (X86)\MICROSOFT VISUAL STUDIO 14.0\VC\ATLMFC\INCLUDE\AFXWIN2.INL
C:\PROGRAM FILES (X86)\MICROSOFT VISUAL STUDIO 14.0\VC\ATLMFC\INCLUDE\AFXWIN3.INL
C:\PROGRAM FILES (X86)\MICROSOFT VISUAL STUDIO 14.0\VC\ATLMFC\INCLUDE\AFXWIN4.INL
C:\PROGRAM FILES (X86)\MICROSOFT VISUAL STUDIO 14.0\VC\ATLMFC\INCLUDE\AFXLAYOUT.H
C:\PROGRAM FILES (X86)\MICROSOFT VISUAL STUDIO 14.0\VC\ATLMFC\INCLUDE\AFXEXT.H
C:\PROGRAM FILES (X86)\MICROSOFT VISUAL STUDIO 14.0\VC\ATLMFC\INCLUDE\AFXDLGS.H
C:\PROGRAM FILES (X86)\MICROSOFT SDKS\WINDOWS\V7.1A\INCLUDE\RICHEDIT.H
C:\PROGRAM FILES (X86)\MICROSOFT VISUAL STUDIO 14.0\VC\ATLMFC\INCLUDE\AFXDLGS.INL
C:\PROGRAM FILES (X86)\MICROSOFT VISUAL STUDIO 14.0\VC\ATLMFC\INCLUDE\AFXEXT.INL
C:\PROGRAM FILES (X86)\MICROSOFT VISUAL STUDIO 14.0\VC\ATLMFC\INCLUDE\AFXDTCTL.H
C:\PROGRAM FILES (X86)\MICROSOFT VISUAL STUDIO 14.0\VC\ATLMFC\INCLUDE\AFXDISP.H
C:\PROGRAM FILES (X86)\MICROSOFT SDKS\WINDOWS\V7.1A\INCLUDE\SHLOBJ.H
C:\PROGRAM FILES (X86)\MICROSOFT SDKS\WINDOWS\V7.1A\INCLUDE\SHLGUID.H
C:\PROGRAM FILES (X86)\MICROSOFT SDKS\WINDOWS\V7.1A\INCLUDE\ISGUIDS.H
C:\PROGRAM FILES (X86)\MICROSOFT SDKS\WINDOWS\V7.1A\INCLUDE\EXDISP.H
C:\PROGRAM FILES (X86)\MICROSOFT SDKS\WINDOWS\V7.1A\INCLUDE\SHLDISP.H
C:\PROGRAM FILES (X86)\MICROSOFT SDKS\WINDOWS\V7.1A\INCLUDE\KNOWNFOLDERS.H
C:\PROGRAM FILES (X86)\MICROSOFT VISUAL STUDIO 14.0\VC\ATLMFC\INCLUDE\ATLCOMTIME.H
C:\PROGRAM FILES (X86)\MICROSOFT VISUAL STUDIO 14.0\VC\ATLMFC\INCLUDE\AFXOCC.H
C:\PROGRAM FILES (X86)\MICROSOFT VISUAL STUDIO 14.0\VC\ATLMFC\INCLUDE\OLEBIND.H
C:\PROGRAM FILES (X86)\MICROSOFT VISUAL STUDIO 14.0\VC\ATLMFC\INCLUDE\OCDBID.H
C:\PROGRAM FILES (X86)\MICROSOFT VISUAL STUDIO 14.0\VC\ATLMFC\INCLUDE\OCDB.H
C:\PROGRAM FILES (X86)\MICROSOFT VISUAL STUDIO 14.0\VC\ATLMFC\INCLUDE\AFXOLE.INL
C:\PROGRAM FILES (X86)\MICROSOFT VISUAL STUDIO 14.0\VC\ATLMFC\INCLUDE\AFXDTCTL.INL
C:\PROGRAM FILES (X86)\MICROSOFT VISUAL STUDIO 14.0\VC\ATLMFC\INCLUDE\AFXCMN.H
C:\PROGRAM FILES (X86)\MICROSOFT VISUAL STUDIO 14.0\VC\ATLMFC\INCLUDE\AFXCMN.INL
C:\PROGRAM FILES (X86)\MICROSOFT VISUAL STUDIO 14.0\VC\ATLMFC\INCLUDE\AFXCMN2.INL
C:\PROGRAM FILES (X86)\MICROSOFT VISUAL STUDIO 14.0\VC\ATLMFC\INCLUDE\AFXCMN3.INL
C:\PROGRAM FILES (X86)\MICROSOFT VISUAL STUDIO 14.0\VC\ATLMFC\INCLUDE\AFXCONTROLBARS.H
C:\PROGRAM FILES (X86)\MICROSOFT VISUAL STUDIO 14.0\VC\ATLMFC\INCLUDE\AFXCONTROLBARUTIL.H
C:\PROGRAM FILES (X86)\MICROSOFT VISUAL STUDIO 14.0\VC\ATLMFC\INCLUDE\AFXUSERTOOLSMANAGER.H
C:\PROGRAM FILES (X86)\MICROSOFT VISUAL STUDIO 14.0\VC\ATLMFC\INCLUDE\AFXUSERTOOL.H
C:\PROGRAM FILES (X86)\MICROSOFT VISUAL STUDIO 14.0\VC\ATLMFC\INCLUDE\AFXTOOLBAR.H
C:\PROGRAM FILES (X86)\MICROSOFT VISUAL STUDIO 14.0\VC\ATLMFC\INCLUDE\AFXTOOLBARDROPTARGET.H
C:\PROGRAM FILES (X86)\MICROSOFT VISUAL STUDIO 14.0\VC\ATLMFC\INCLUDE\AFXOLE.H
C:\PROGRAM FILES (X86)\MICROSOFT VISUAL STUDIO 14.0\VC\ATLMFC\INCLUDE\AFXCOM_.H
C:\PROGRAM FILES (X86)\MICROSOFT VISUAL STUDIO 14.0\VC\ATLMFC\INCLUDE\AFXTOOLBARDROPSOURCE.H
C:\PROGRAM FILES (X86)\MICROSOFT VISUAL STUDIO 14.0\VC\ATLMFC\INCLUDE\AFXTOOLBARIMAGES.H
C:\PROGRAM FILES (X86)\MICROSOFT VISUAL STUDIO 14.0\VC\ATLMFC\INCLUDE\AFXMT.H
C:\PROGRAM FILES (X86)\MICROSOFT VISUAL STUDIO 14.0\VC\ATLMFC\INCLUDE\AFXMT.INL
C:\PROGRAM FILES (X86)\MICROSOFT VISUAL STUDIO 14.0\VC\ATLMFC\INCLUDE\ATLIMAGE.H
C:\PROGRAM FILES (X86)\MICROSOFT SDKS\WINDOWS\V7.1A\INCLUDE\GDIPLUS.H
C:\PROGRAM FILES (X86)\MICROSOFT SDKS\WINDOWS\V7.1A\INCLUDE\GDIPLUSMEM.H
C:\PROGRAM FILES (X86)\MICROSOFT SDKS\WINDOWS\V7.1A\INCLUDE\GDIPLUSBASE.H
C:\PROGRAM FILES (X86)\MICROSOFT SDKS\WINDOWS\V7.1A\INCLUDE\GDIPLUSENUMS.H
C:\PROGRAM FILES (X86)\MICROSOFT SDKS\WINDOWS\V7.1A\INCLUDE\GDIPLUSTYPES.H
C:\PROGRAM FILES (X86)\MICROSOFT SDKS\WINDOWS\V7.1A\INCLUDE\GDIPLUSINIT.H
C:\PROGRAM FILES (X86)\MICROSOFT SDKS\WINDOWS\V7.1A\INCLUDE\GDIPLUSPIXELFORMATS.H
C:\PROGRAM FILES (X86)\MICROSOFT SDKS\WINDOWS\V7.1A\INCLUDE\GDIPLUSCOLOR.H
C:\PROGRAM FILES (X86)\MICROSOFT SDKS\WINDOWS\V7.1A\INCLUDE\GDIPLUSMETAHEADER.H
C:\PROGRAM FILES (X86)\MICROSOFT SDKS\WINDOWS\V7.1A\INCLUDE\GDIPLUSIMAGING.H
C:\PROGRAM FILES (X86)\MICROSOFT SDKS\WINDOWS\V7.1A\INCLUDE\GDIPLUSCOLORMATRIX.H
C:\PROGRAM FILES (X86)\MICROSOFT SDKS\WINDOWS\V7.1A\INCLUDE\GDIPLUSGPSTUBS.H
C:\PROGRAM FILES (X86)\MICROSOFT SDKS\WINDOWS\V7.1A\INCLUDE\GDIPLUSHEADERS.H
C:\PROGRAM FILES (X86)\MICROSOFT SDKS\WINDOWS\V7.1A\INCLUDE\GDIPLUSFLAT.H
C:\PROGRAM FILES (X86)\MICROSOFT SDKS\WINDOWS\V7.1A\INCLUDE\GDIPLUSIMAGEATTRIBUTES.H
C:\PROGRAM FILES (X86)\MICROSOFT SDKS\WINDOWS\V7.1A\INCLUDE\GDIPLUSMATRIX.H
C:\PROGRAM FILES (X86)\MICROSOFT SDKS\WINDOWS\V7.1A\INCLUDE\GDIPLUSBRUSH.H
C:\PROGRAM FILES (X86)\MICROSOFT SDKS\WINDOWS\V7.1A\INCLUDE\GDIPLUSPEN.H
C:\PROGRAM FILES (X86)\MICROSOFT SDKS\WINDOWS\V7.1A\INCLUDE\GDIPLUSSTRINGFORMAT.H
C:\PROGRAM FILES (X86)\MICROSOFT SDKS\WINDOWS\V7.1A\INCLUDE\GDIPLUSPATH.H
C:\PROGRAM FILES (X86)\MICROSOFT SDKS\WINDOWS\V7.1A\INCLUDE\GDIPLUSLINECAPS.H
C:\PROGRAM FILES (X86)\MICROSOFT SDKS\WINDOWS\V7.1A\INCLUDE\GDIPLUSGRAPHICS.H
C:\PROGRAM FILES (X86)\MICROSOFT SDKS\WINDOWS\V7.1A\INCLUDE\GDIPLUSMETAFILE.H
C:\PROGRAM FILES (X86)\MICROSOFT SDKS\WINDOWS\V7.1A\INCLUDE\GDIPLUSCACHEDBITMAP.H
C:\PROGRAM FILES (X86)\MICROSOFT SDKS\WINDOWS\V7.1A\INCLUDE\GDIPLUSREGION.H
C:\PROGRAM FILES (X86)\MICROSOFT SDKS\WINDOWS\V7.1A\INCLUDE\GDIPLUSFONTCOLLECTION.H
C:\PROGRAM FILES (X86)\MICROSOFT SDKS\WINDOWS\V7.1A\INCLUDE\GDIPLUSFONTFAMILY.H
C:\PROGRAM FILES (X86)\MICROSOFT SDKS\WINDOWS\V7.1A\INCLUDE\GDIPLUSFONT.H
C:\PROGRAM FILES (X86)\MICROSOFT SDKS\WINDOWS\V7.1A\INCLUDE\GDIPLUSBITMAP.H
C:\PROGRAM FILES (X86)\MICROSOFT SDKS\WINDOWS\V7.1A\INCLUDE\GDIPLUSIMAGECODEC.H
C:\PROGRAM FILES (X86)\MICROSOFT VISUAL STUDIO 14.0\VC\ATLMFC\INCLUDE\AFXTOOLBARBUTTON.H
C:\PROGRAM FILES (X86)\MICROSOFT VISUAL STUDIO 14.0\VC\ATLMFC\INCLUDE\AFXCONTROLBARIMPL.H
C:\PROGRAM FILES (X86)\MICROSOFT VISUAL STUDIO 14.0\VC\ATLMFC\INCLUDE\AFXCMDUSAGECOUNT.H
C:\PROGRAM FILES (X86)\MICROSOFT VISUAL STUDIO 14.0\VC\ATLMFC\INCLUDE\AFXCOMMANDMANAGER.H
C:\PROGRAM FILES (X86)\MICROSOFT VISUAL STUDIO 14.0\VC\ATLMFC\INCLUDE\AFXVISUALMANAGER.H
C:\PROGRAM FILES (X86)\MICROSOFT VISUAL STUDIO 14.0\VC\ATLMFC\INCLUDE\AFXGLOBALS.H
C:\PROGRAM FILES (X86)\MICROSOFT VISUAL STUDIO 14.0\VC\ATLMFC\INCLUDE\AFXACCESSIBILITY.H
C:\PROGRAM FILES (X86)\MICROSOFT VISUAL STUDIO 14.0\VC\ATLMFC\INCLUDE\AFXBASETOOLBAR.H
C:\PROGRAM FILES (X86)\MICROSOFT VISUAL STUDIO 14.0\VC\ATLMFC\INCLUDE\AFXPANE.H
C:\PROGRAM FILES (X86)\MICROSOFT VISUAL STUDIO 14.0\VC\ATLMFC\INCLUDE\AFXBASEPANE.H
C:\PROGRAM FILES (X86)\MICROSOFT VISUAL STUDIO 14.0\VC\ATLMFC\INCLUDE\AFXRECENTDOCKSITEINFO.H
C:\PROGRAM FILES (X86)\MICROSOFT VISUAL STUDIO 14.0\VC\ATLMFC\INCLUDE\AFXDRAGFRAMEIMPL.H
C:\PROGRAM FILES (X86)\MICROSOFT VISUAL STUDIO 14.0\VC\ATLMFC\INCLUDE\AFXSTATUSBAR.H
C:\PROGRAM FILES (X86)\MICROSOFT VISUAL STUDIO 14.0\VC\ATLMFC\INCLUDE\AFXMENUBAR.H
C:\PROGRAM FILES (X86)\MICROSOFT VISUAL STUDIO 14.0\VC\ATLMFC\INCLUDE\AFXPANEDIALOG.H
C:\PROGRAM FILES (X86)\MICROSOFT VISUAL STUDIO 14.0\VC\ATLMFC\INCLUDE\AFXDOCKABLEPANE.H
C:\PROGRAM FILES (X86)\MICROSOFT VISUAL STUDIO 14.0\VC\ATLMFC\INCLUDE\AFXMENUIMAGES.H
C:\PROGRAM FILES (X86)\MICROSOFT VISUAL STUDIO 14.0\VC\ATLMFC\INCLUDE\AFXPANECONTAINER.H
C:\PROGRAM FILES (X86)\MICROSOFT VISUAL STUDIO 14.0\VC\ATLMFC\INCLUDE\AFXCAPTIONBUTTON.H
C:\PROGRAM FILES (X86)\MICROSOFT VISUAL STUDIO 14.0\VC\ATLMFC\INCLUDE\AFXMULTIPANEFRAMEWND.H
C:\PROGRAM FILES (X86)\MICROSOFT VISUAL STUDIO 14.0\VC\ATLMFC\INCLUDE\AFXPANEFRAMEWND.H
C:\PROGRAM FILES (X86)\MICROSOFT VISUAL STUDIO 14.0\VC\ATLMFC\INCLUDE\AFXPANECONTAINERMANAGER.H
C:\PROGRAM FILES (X86)\MICROSOFT VISUAL STUDIO 14.0\VC\ATLMFC\INCLUDE\AFXPANEDIVIDER.H
C:\PROGRAM FILES (X86)\MICROSOFT VISUAL STUDIO 14.0\VC\ATLMFC\INCLUDE\AFXOUTLOOKBAR.H
C:\PROGRAM FILES (X86)\MICROSOFT VISUAL STUDIO 14.0\VC\ATLMFC\INCLUDE\AFXBASETABBEDPANE.H
C:\PROGRAM FILES (X86)\MICROSOFT VISUAL STUDIO 14.0\VC\ATLMFC\INCLUDE\AFXBASETABCTRL.H
C:\PROGRAM FILES (X86)\MICROSOFT VISUAL STUDIO 14.0\VC\ATLMFC\INCLUDE\AFXOUTLOOKBARTABCTRL.H
C:\PROGRAM FILES (X86)\MICROSOFT VISUAL STUDIO 14.0\VC\ATLMFC\INCLUDE\AFXRIBBONRES.H
C:\PROGRAM FILES (X86)\MICROSOFT VISUAL STUDIO 14.0\VC\ATLMFC\INCLUDE\AFXBUTTON.H
C:\PROGRAM FILES (X86)\MICROSOFT VISUAL STUDIO 14.0\VC\ATLMFC\INCLUDE\AFXTOOLBARSLISTCHECKBOX.H
C:\PROGRAM FILES (X86)\MICROSOFT VISUAL STUDIO 14.0\VC\ATLMFC\INCLUDE\AFXCOLORBAR.H
C:\PROGRAM FILES (X86)\MICROSOFT VISUAL STUDIO 14.0\VC\ATLMFC\INCLUDE\AFXPOPUPMENUBAR.H
C:\PROGRAM FILES (X86)\MICROSOFT VISUAL STUDIO 14.0\VC\ATLMFC\INCLUDE\AFXCAPTIONBAR.H
C:\PROGRAM FILES (X86)\MICROSOFT VISUAL STUDIO 14.0\VC\ATLMFC\INCLUDE\AFXOUTLOOKBARPANE.H
C:\PROGRAM FILES (X86)\MICROSOFT VISUAL STUDIO 14.0\VC\ATLMFC\INCLUDE\AFXTABBEDPANE.H
C:\PROGRAM FILES (X86)\MICROSOFT VISUAL STUDIO 14.0\VC\ATLMFC\INCLUDE\AFXTABCTRL.H
C:\PROGRAM FILES (X86)\MICROSOFT VISUAL STUDIO 14.0\VC\ATLMFC\INCLUDE\AFXTASKSPANE.H
C:\PROGRAM FILES (X86)\MICROSOFT VISUAL STUDIO 14.0\VC\ATLMFC\INCLUDE\AFXCAPTIONMENUBUTTON.H
C:\PROGRAM FILES (X86)\MICROSOFT VISUAL STUDIO 14.0\VC\ATLMFC\INCLUDE\AFXTASKSPANEFRAMEWND.H
C:\PROGRAM FILES (X86)\MICROSOFT VISUAL STUDIO 14.0\VC\ATLMFC\INCLUDE\AFXRIBBONBAR.H
C:\PROGRAM FILES (X86)\MICROSOFT VISUAL STUDIO 14.0\VC\ATLMFC\INCLUDE\AFXRIBBONBUTTON.H
C:\PROGRAM FILES (X86)\MICROSOFT VISUAL STUDIO 14.0\VC\ATLMFC\INCLUDE\AFXBASERIBBONELEMENT.H
C:\PROGRAM FILES (X86)\MICROSOFT VISUAL STUDIO 14.0\VC\ATLMFC\INCLUDE\AFXRIBBONQUICKACCESSTOOLBAR.H
C:\PROGRAM FILES (X86)\MICROSOFT VISUAL STUDIO 14.0\VC\ATLMFC\INCLUDE\AFXRIBBONBUTTONSGROUP.H
C:\PROGRAM FILES (X86)\MICROSOFT VISUAL STUDIO 14.0\VC\ATLMFC\INCLUDE\AFXRIBBONCUSTOMIZEDIALOG.H
C:\PROGRAM FILES (X86)\MICROSOFT VISUAL STUDIO 14.0\VC\ATLMFC\INCLUDE\AFXPROPERTYSHEET.H
C:\PROGRAM FILES (X86)\MICROSOFT VISUAL STUDIO 14.0\VC\ATLMFC\INCLUDE\AFXDIALOGIMPL.H
C:\PROGRAM FILES (X86)\MICROSOFT VISUAL STUDIO 14.0\VC\ATLMFC\INCLUDE\AFXPROPERTYPAGE.H
C:\PROGRAM FILES (X86)\MICROSOFT VISUAL STUDIO 14.0\VC\ATLMFC\INCLUDE\AFXRIBBONCOMMANDSLISTBOX.H
C:\PROGRAM FILES (X86)\MICROSOFT VISUAL STUDIO 14.0\VC\ATLMFC\INCLUDE\AFXRIBBONKEYBOARDCUSTOMIZEDIALOG.H
C:\PROGRAM FILES (X86)\MICROSOFT VISUAL STUDIO 14.0\VC\ATLMFC\INCLUDE\AFXDIALOGEX.H
C:\PROGRAM FILES (X86)\MICROSOFT VISUAL STUDIO 14.0\VC\ATLMFC\INCLUDE\AFXACCELERATORKEYASSIGNCTRL.H
C:\PROGRAM FILES (X86)\MICROSOFT VISUAL STUDIO 14.0\VC\ATLMFC\INCLUDE\AFXACCELERATORKEY.H
C:\PROGRAM FILES (X86)\MICROSOFT VISUAL STUDIO 14.0\VC\ATLMFC\INCLUDE\AFXRIBBONPANEL.H
C:\PROGRAM FILES (X86)\MICROSOFT VISUAL STUDIO 14.0\VC\ATLMFC\INCLUDE\AFXRIBBONMAINPANEL.H
C:\PROGRAM FILES (X86)\MICROSOFT VISUAL STUDIO 14.0\VC\ATLMFC\INCLUDE\AFXRIBBONPANELMENU.H
C:\PROGRAM FILES (X86)\MICROSOFT VISUAL STUDIO 14.0\VC\ATLMFC\INCLUDE\AFXPOPUPMENU.H
C:\PROGRAM FILES (X86)\MICROSOFT VISUAL STUDIO 14.0\VC\ATLMFC\INCLUDE\AFXRIBBONMINITOOLBAR.H
C:\PROGRAM FILES (X86)\MICROSOFT VISUAL STUDIO 14.0\VC\ATLMFC\INCLUDE\AFXRIBBONCATEGORY.H
C:\PROGRAM FILES (X86)\MICROSOFT VISUAL STUDIO 14.0\VC\ATLMFC\INCLUDE\AFXRIBBONLABEL.H
C:\PROGRAM FILES (X86)\MICROSOFT VISUAL STUDIO 14.0\VC\ATLMFC\INCLUDE\AFXRIBBONCOLORBUTTON.H
C:\PROGRAM FILES (X86)\MICROSOFT VISUAL STUDIO 14.0\VC\ATLMFC\INCLUDE\AFXRIBBONPALETTEGALLERY.H
C:\PROGRAM FILES (X86)\MICROSOFT VISUAL STUDIO 14.0\VC\ATLMFC\INCLUDE\AFXTOOLBARMENUBUTTON.H
C:\PROGRAM FILES (X86)\MICROSOFT VISUAL STUDIO 14.0\VC\ATLMFC\INCLUDE\AFXRIBBONEDIT.H
C:\PROGRAM FILES (X86)\MICROSOFT VISUAL STUDIO 14.0\VC\ATLMFC\INCLUDE\AFXRIBBONCOMBOBOX.H
C:\PROGRAM FILES (X86)\MICROSOFT VISUAL STUDIO 14.0\VC\ATLMFC\INCLUDE\AFXTOOLBARFONTCOMBOBOX.H
C:\PROGRAM FILES (X86)\MICROSOFT VISUAL STUDIO 14.0\VC\ATLMFC\INCLUDE\AFXTOOLBARCOMBOBOXBUTTON.H
C:\PROGRAM FILES (X86)\MICROSOFT VISUAL STUDIO 14.0\VC\ATLMFC\INCLUDE\AFXRIBBONCHECKBOX.H
C:\PROGRAM FILES (X86)\MICROSOFT VISUAL STUDIO 14.0\VC\ATLMFC\INCLUDE\AFXRIBBONSTATUSBAR.H
C:\PROGRAM FILES (X86)\MICROSOFT VISUAL STUDIO 14.0\VC\ATLMFC\INCLUDE\AFXRIBBONSTATUSBARPANE.H
C:\PROGRAM FILES (X86)\MICROSOFT VISUAL STUDIO 14.0\VC\ATLMFC\INCLUDE\AFXRIBBONSLIDER.H
C:\PROGRAM FILES (X86)\MICROSOFT VISUAL STUDIO 14.0\VC\ATLMFC\INCLUDE\AFXRIBBONPROGRESSBAR.H
C:\PROGRAM FILES (X86)\MICROSOFT VISUAL STUDIO 14.0\VC\ATLMFC\INCLUDE\AFXRIBBONLINKCTRL.H
C:\PROGRAM FILES (X86)\MICROSOFT VISUAL STUDIO 14.0\VC\ATLMFC\INCLUDE\AFXRIBBONUNDOBUTTON.H
C:\PROGRAM FILES (X86)\MICROSOFT VISUAL STUDIO 14.0\VC\ATLMFC\INCLUDE\AFXTOOLBAREDITBOXBUTTON.H
C:\PROGRAM FILES (X86)\MICROSOFT VISUAL STUDIO 14.0\VC\ATLMFC\INCLUDE\AFXEDITBROWSECTRL.H
C:\PROGRAM FILES (X86)\MICROSOFT VISUAL STUDIO 14.0\VC\ATLMFC\INCLUDE\AFXTOOLBARSPINEDITBOXBUTTON.H
C:\PROGRAM FILES (X86)\MICROSOFT VISUAL STUDIO 14.0\VC\ATLMFC\INCLUDE\AFXSPINBUTTONCTRL.H
C:\PROGRAM FILES (X86)\MICROSOFT VISUAL STUDIO 14.0\VC\ATLMFC\INCLUDE\AFXTOOLBARSYSTEMMENUBUTTON.H
C:\PROGRAM FILES (X86)\MICROSOFT VISUAL STUDIO 14.0\VC\ATLMFC\INCLUDE\AFXTOOLBARDATETIMECTRL.H
C:\PROGRAM FILES (X86)\MICROSOFT VISUAL STUDIO 14.0\VC\ATLMFC\INCLUDE\AFXDROPDOWNTOOLBAR.H
C:\PROGRAM FILES (X86)\MICROSOFT VISUAL STUDIO 14.0\VC\ATLMFC\INCLUDE\AFXCOLORMENUBUTTON.H
C:\PROGRAM FILES (X86)\MICROSOFT VISUAL STUDIO 14.0\VC\ATLMFC\INCLUDE\AFXOUTLOOKBARPANEBUTTON.H
C:\PROGRAM FILES (X86)\MICROSOFT VISUAL STUDIO 14.0\VC\ATLMFC\INCLUDE\AFXDROPDOWNLISTBOX.H
C:\PROGRAM FILES (X86)\MICROSOFT VISUAL STUDIO 14.0\VC\ATLMFC\INCLUDE\AFXAUTOHIDEBUTTON.H
C:\PROGRAM FILES (X86)\MICROSOFT VISUAL STUDIO 14.0\VC\ATLMFC\INCLUDE\AFXAUTOHIDEBAR.H
C:\PROGRAM FILES (X86)\MICROSOFT VISUAL STUDIO 14.0\VC\ATLMFC\INCLUDE\AFXFRAMEWNDEX.H
C:\PROGRAM FILES (X86)\MICROSOFT VISUAL STUDIO 14.0\VC\ATLMFC\INCLUDE\AFXFRAMEIMPL.H
C:\PROGRAM FILES (X86)\MICROSOFT VISUAL STUDIO 14.0\VC\ATLMFC\INCLUDE\AFXDOCKINGMANAGER.H
C:\PROGRAM FILES (X86)\MICROSOFT VISUAL STUDIO 14.0\VC\ATLMFC\INCLUDE\AFXSMARTDOCKINGMANAGER.H
C:\PROGRAM FILES (X86)\MICROSOFT VISUAL STUDIO 14.0\VC\ATLMFC\INCLUDE\AFXSMARTDOCKINGGUIDE.H
C:\PROGRAM FILES (X86)\MICROSOFT VISUAL STUDIO 14.0\VC\ATLMFC\INCLUDE\AFXSMARTDOCKINGHIGHLIGHTERWND.H
C:\PROGRAM FILES (X86)\MICROSOFT VISUAL STUDIO 14.0\VC\ATLMFC\INCLUDE\AFXFULLSCREENIMPL.H
C:\PROGRAM FILES (X86)\MICROSOFT VISUAL STUDIO 14.0\VC\ATLMFC\INCLUDE\AFXMDIFRAMEWNDEX.H
C:\PROGRAM FILES (X86)\MICROSOFT VISUAL STUDIO 14.0\VC\ATLMFC\INCLUDE\AFXMDICLIENTAREAWND.H
C:\PROGRAM FILES (X86)\MICROSOFT VISUAL STUDIO 14.0\VC\ATLMFC\INCLUDE\AFXMDICHILDWNDEX.H
C:\PROGRAM FILES (X86)\MICROSOFT VISUAL STUDIO 14.0\VC\ATLMFC\INCLUDE\AFXOLEIPFRAMEWNDEX.H
C:\PROGRAM FILES (X86)\MICROSOFT VISUAL STUDIO 14.0\VC\ATLMFC\INCLUDE\AFXOLEDOCIPFRAMEWNDEX.H
C:\PROGRAM FILES (X86)\MICROSOFT VISUAL STUDIO 14.0\VC\ATLMFC\INCLUDE\AFXDOCOB.H
C:\PROGRAM FILES (X86)\MICROSOFT VISUAL STUDIO 14.0\VC\ATLMFC\INCLUDE\AFXOLECNTRFRAMEWNDEX.H
C:\PROGRAM FILES (X86)\MICROSOFT VISUAL STUDIO 14.0\VC\ATLMFC\INCLUDE\AFXPRIV.H
C:\PROGRAM FILES (X86)\MICROSOFT VISUAL STUDIO 14.0\VC\ATLMFC\INCLUDE\AFXADV.H
C:\PROGRAM FILES (X86)\MICROSOFT VISUAL STUDIO 14.0\VC\ATLMFC\INCLUDE\AFXCONV.H
C:\PROGRAM FILES (X86)\MICROSOFT VISUAL STUDIO 14.0\VC\ATLMFC\INCLUDE\AFXPRIV2.H
C:\PROGRAM FILES (X86)\MICROSOFT VISUAL STUDIO 14.0\VC\ATLMFC\INCLUDE\AFXTOOLBARSCUSTOMIZEDIALOG.H
C:\PROGRAM FILES (X86)\MICROSOFT VISUAL STUDIO 14.0\VC\ATLMFC\INCLUDE\AFXTOOLBARSLISTPROPERTYPAGE.H
C:\PROGRAM FILES (X86)\MICROSOFT VISUAL STUDIO 14.0\VC\ATLMFC\INCLUDE\AFXTOOLBARBUTTONSLISTBUTTON.H
C:\PROGRAM FILES (X86)\MICROSOFT VISUAL STUDIO 14.0\VC\ATLMFC\INCLUDE\AFXTOOLBARSCOMMANDSLISTBOX.H
C:\PROGRAM FILES (X86)\MICROSOFT VISUAL STUDIO 14.0\VC\ATLMFC\INCLUDE\AFXTOOLBARSTOOLSPROPERTYPAGE.H
C:\PROGRAM FILES (X86)\MICROSOFT VISUAL STUDIO 14.0\VC\ATLMFC\INCLUDE\AFXVSLISTBOX.H
C:\PROGRAM FILES (X86)\MICROSOFT VISUAL STUDIO 14.0\VC\ATLMFC\INCLUDE\AFXMENUBUTTON.H
C:\PROGRAM FILES (X86)\MICROSOFT VISUAL STUDIO 14.0\VC\ATLMFC\INCLUDE\AFXTOOLBARSMENUPROPERTYPAGE.H
C:\PROGRAM FILES (X86)\MICROSOFT VISUAL STUDIO 14.0\VC\ATLMFC\INCLUDE\AFXMOUSEPROPERTYPAGE.H
C:\PROGRAM FILES (X86)\MICROSOFT VISUAL STUDIO 14.0\VC\ATLMFC\INCLUDE\AFXTOOLBARSKEYBOARDPROPERTYPAGE.H
C:\PROGRAM FILES (X86)\MICROSOFT VISUAL STUDIO 14.0\VC\ATLMFC\INCLUDE\AFXTOOLBARSOPTIONSPROPERTYPAGE.H
C:\PROGRAM FILES (X86)\MICROSOFT VISUAL STUDIO 14.0\VC\ATLMFC\INCLUDE\AFXCUSTOMIZEMENUBUTTON.H
C:\PROGRAM FILES (X86)\MICROSOFT VISUAL STUDIO 14.0\VC\ATLMFC\INCLUDE\AFXCONTEXTMENUMANAGER.H
C:\PROGRAM FILES (X86)\MICROSOFT VISUAL STUDIO 14.0\VC\ATLMFC\INCLUDE\AFXKEYBOARDMANAGER.H
C:\PROGRAM FILES (X86)\MICROSOFT VISUAL STUDIO 14.0\VC\ATLMFC\INCLUDE\AFXMOUSEMANAGER.H
C:\PROGRAM FILES (X86)\MICROSOFT VISUAL STUDIO 14.0\VC\ATLMFC\INCLUDE\AFXWINAPPEX.H
C:\PROGRAM FILES (X86)\MICROSOFT VISUAL STUDIO 14.0\VC\ATLMFC\INCLUDE\AFXSETTINGSSTORE.H
C:\PROGRAM FILES (X86)\MICROSOFT VISUAL STUDIO 14.0\VC\ATLMFC\INCLUDE\AFXREBARSTATE.H
C:\PROGRAM FILES (X86)\MICROSOFT VISUAL STUDIO 14.0\VC\ATLMFC\INCLUDE\AFXMENUTEAROFFMANAGER.H
C:\PROGRAM FILES (X86)\MICROSOFT VISUAL STUDIO 14.0\VC\ATLMFC\INCLUDE\AFXDRAWMANAGER.H
C:\PROGRAM FILES (X86)\MICROSOFT VISUAL STUDIO 14.0\VC\ATLMFC\INCLUDE\AFXDOCKINGPANESROW.H
C:\PROGRAM FILES (X86)\MICROSOFT VISUAL STUDIO 14.0\VC\ATLMFC\INCLUDE\AFXTOOLTIPMANAGER.H
C:\PROGRAM FILES (X86)\MICROSOFT VISUAL STUDIO 14.0\VC\ATLMFC\INCLUDE\AFXTOOLTIPCTRL.H
C:\PROGRAM FILES (X86)\MICROSOFT VISUAL STUDIO 14.0\VC\ATLMFC\INCLUDE\AFXCONTROLRENDERER.H
C:\PROGRAM FILES (X86)\MICROSOFT VISUAL STUDIO 14.0\VC\ATLMFC\INCLUDE\AFXDOCKABLEPANEADAPTER.H
C:\PROGRAM FILES (X86)\MICROSOFT VISUAL STUDIO 14.0\VC\ATLMFC\INCLUDE\AFXDOCKSITE.H
C:\PROGRAM FILES (X86)\MICROSOFT VISUAL STUDIO 14.0\VC\ATLMFC\INCLUDE\AFXCOLORBUTTON.H
C:\PROGRAM FILES (X86)\MICROSOFT VISUAL STUDIO 14.0\VC\ATLMFC\INCLUDE\AFXLINKCTRL.H
C:\PROGRAM FILES (X86)\MICROSOFT VISUAL STUDIO 14.0\VC\ATLMFC\INCLUDE\AFXCOLORPICKERCTRL.H
C:\PROGRAM FILES (X86)\MICROSOFT VISUAL STUDIO 14.0\VC\ATLMFC\INCLUDE\AFXFONTCOMBOBOX.H
C:\PROGRAM FILES (X86)\MICROSOFT VISUAL STUDIO 14.0\VC\ATLMFC\INCLUDE\AFXREBAR.H
C:\PROGRAM FILES (X86)\MICROSOFT VISUAL STUDIO 14.0\VC\ATLMFC\INCLUDE\AFXSHELLTREECTRL.H
C:\PROGRAM FILES (X86)\MICROSOFT VISUAL STUDIO 14.0\VC\ATLMFC\INCLUDE\AFXSHELLMANAGER.H
C:\PROGRAM FILES (X86)\MICROSOFT VISUAL STUDIO 14.0\VC\ATLMFC\INCLUDE\AFXSHELLLISTCTRL.H
C:\PROGRAM FILES (X86)\MICROSOFT VISUAL STUDIO 14.0\VC\ATLMFC\INCLUDE\AFXLISTCTRL.H
C:\PROGRAM FILES (X86)\MICROSOFT VISUAL STUDIO 14.0\VC\ATLMFC\INCLUDE\AFXHEADERCTRL.H
C:\PROGRAM FILES (X86)\MICROSOFT VISUAL STUDIO 14.0\VC\ATLMFC\INCLUDE\AFXPROPERTYGRIDCTRL.H
C:\PROGRAM FILES (X86)\MICROSOFT VISUAL STUDIO 14.0\VC\INCLUDE\COMDEF.H
C:\PROGRAM FILES (X86)\MICROSOFT VISUAL STUDIO 14.0\VC\INCLUDE\COMUTIL.H
C:\PROGRAM FILES (X86)\MICROSOFT VISUAL STUDIO 14.0\VC\INCLUDE\COMIP.H
C:\PROGRAM FILES (X86)\MICROSOFT VISUAL STUDIO 14.0\VC\INCLUDE\COMDEFSP.H
C:\PROGRAM FILES (X86)\MICROSOFT VISUAL STUDIO 14.0\VC\ATLMFC\INCLUDE\AFXCOLORPOPUPMENU.H
C:\PROGRAM FILES (X86)\MICROSOFT VISUAL STUDIO 14.0\VC\ATLMFC\INCLUDE\AFXPROPERTYGRIDTOOLTIPCTRL.H
C:\PROGRAM FILES (X86)\MICROSOFT VISUAL STUDIO 14.0\VC\ATLMFC\INCLUDE\AFXMASKEDEDIT.H
C:\PROGRAM FILES (X86)\MICROSOFT VISUAL STUDIO 14.0\VC\ATLMFC\INCLUDE\AFXSPLITTERWNDEX.H
C:\PROGRAM FILES (X86)\MICROSOFT VISUAL STUDIO 14.0\VC\ATLMFC\INCLUDE\AFXDESKTOPALERTWND.H
C:\PROGRAM FILES (X86)\MICROSOFT VISUAL STUDIO 14.0\VC\ATLMFC\INCLUDE\AFXDESKTOPALERTDIALOG.H
C:\PROGRAM FILES (X86)\MICROSOFT VISUAL STUDIO 14.0\VC\ATLMFC\INCLUDE\AFXWINDOWSMANAGERDIALOG.H
C:\PROGRAM FILES (X86)\MICROSOFT VISUAL STUDIO 14.0\VC\ATLMFC\INCLUDE\AFXPREVIEWVIEWEX.H
C:\PROGRAM FILES (X86)\MICROSOFT VISUAL STUDIO 14.0\VC\ATLMFC\INCLUDE\AFXIMAGEEDITORDIALOG.H
C:\PROGRAM FILES (X86)\MICROSOFT VISUAL STUDIO 14.0\VC\ATLMFC\INCLUDE\AFXIMAGEPAINTAREA.H
C:\PROGRAM FILES (X86)\MICROSOFT VISUAL STUDIO 14.0\VC\ATLMFC\INCLUDE\AFXCOLORDIALOG.H
C:\PROGRAM FILES (X86)\MICROSOFT VISUAL STUDIO 14.0\VC\ATLMFC\INCLUDE\AFXSTANDARDCOLORSPROPERTYPAGE.H
C:\PROGRAM FILES (X86)\MICROSOFT VISUAL STUDIO 14.0\VC\ATLMFC\INCLUDE\AFXCUSTOMCOLORSPROPERTYPAGE.H
C:\PROGRAM FILES (X86)\MICROSOFT VISUAL STUDIO 14.0\VC\ATLMFC\INCLUDE\AFXKEYMAPDIALOG.H
C:\PROGRAM FILES (X86)\MICROSOFT VISUAL STUDIO 14.0\VC\ATLMFC\INCLUDE\AFXTABVIEW.H
C:\PROGRAM FILES (X86)\MICROSOFT VISUAL STUDIO 14.0\VC\ATLMFC\INCLUDE\AFXVISUALMANAGEROFFICEXP.H
C:\PROGRAM FILES (X86)\MICROSOFT VISUAL STUDIO 14.0\VC\ATLMFC\INCLUDE\AFXVISUALMANAGERWINDOWS.H
C:\PROGRAM FILES (X86)\MICROSOFT VISUAL STUDIO 14.0\VC\ATLMFC\INCLUDE\AFXVISUALMANAGEROFFICE2003.H
C:\PROGRAM FILES (X86)\MICROSOFT VISUAL STUDIO 14.0\VC\ATLMFC\INCLUDE\AFXVISUALMANAGERVS2005.H
C:\PROGRAM FILES (X86)\MICROSOFT VISUAL STUDIO 14.0\VC\ATLMFC\INCLUDE\AFXVISUALMANAGERVS2008.H
C:\PROGRAM FILES (X86)\MICROSOFT VISUAL STUDIO 14.0\VC\ATLMFC\INCLUDE\AFXVISUALMANAGEROFFICE2007.H
C:\PROGRAM FILES (X86)\MICROSOFT VISUAL STUDIO 14.0\VC\ATLMFC\INCLUDE\AFXVISUALMANAGERWINDOWS7.H
C:\PROGRAM FILES (X86)\MICROSOFT VISUAL STUDIO 14.0\VC\ATLMFC\INCLUDE\AFXOLESERVERDOCEX.H
C:\PROGRAM FILES (X86)\MICROSOFT VISUAL STUDIO 14.0\VC\ATLMFC\INCLUDE\AFXGLOBALUTILS.H
^D:\PROJECTS\DMPRINTERTEST\TXPRINTERTEST\DENDLG.CPP
D:\PROJECTS\DMPRINTERTEST\TXPRINTERTEST\RELEASE\打印测试程序.PCH
D:\PROJECTS\DMPRINTERTEST\TXPRINTERTEST\DENDLG.H
D:\PROJECTS\DMPRINTERTEST\TXPRINTERTEST\RESOURCE.H
D:\PROJECTS\DMPRINTERTEST\TXPRINTERTEST\TXPRINTERTEST.H
D:\PROJECTS\DMPRINTERTEST\TXPRINTERTEST\EXPORT.H
C:\PROGRAM FILES (X86)\MICROSOFT VISUAL STUDIO 14.0\VC\INCLUDE\VECTOR
C:\PROGRAM FILES (X86)\MICROSOFT VISUAL STUDIO 14.0\VC\INCLUDE\XMEMORY
C:\PROGRAM FILES (X86)\MICROSOFT VISUAL STUDIO 14.0\VC\INCLUDE\XMEMORY0
C:\PROGRAM FILES (X86)\MICROSOFT VISUAL STUDIO 14.0\VC\INCLUDE\CSTDINT
C:\PROGRAM FILES (X86)\MICROSOFT VISUAL STUDIO 14.0\VC\INCLUDE\YVALS.H
C:\PROGRAM FILES (X86)\MICROSOFT VISUAL STUDIO 14.0\VC\INCLUDE\XKEYCHECK.H
C:\PROGRAM FILES (X86)\MICROSOFT VISUAL STUDIO 14.0\VC\INCLUDE\CRTDEFS.H
C:\PROGRAM FILES (X86)\MICROSOFT VISUAL STUDIO 14.0\VC\INCLUDE\VCRUNTIME.H
C:\PROGRAM FILES (X86)\MICROSOFT VISUAL STUDIO 14.0\VC\INCLUDE\USE_ANSI.H
C:\PROGRAM FILES (X86)\MICROSOFT VISUAL STUDIO 14.0\VC\INCLUDE\STDINT.H
C:\PROGRAM FILES (X86)\MICROSOFT VISUAL STUDIO 14.0\VC\INCLUDE\CSTDLIB
C:\PROGRAM FILES (X86)\MICROSOFT VISUAL STUDIO 14.0\VC\INCLUDE\LIMITS
C:\PROGRAM FILES (X86)\MICROSOFT VISUAL STUDIO 14.0\VC\INCLUDE\YMATH.H
C:\PROGRAM FILES (X86)\MICROSOFT VISUAL STUDIO 14.0\VC\INCLUDE\CFLOAT
C:\PROGRAM FILES (X86)\MICROSOFT VISUAL STUDIO 14.0\VC\INCLUDE\CLIMITS
C:\PROGRAM FILES (X86)\MICROSOFT VISUAL STUDIO 14.0\VC\INCLUDE\CMATH
C:\PROGRAM FILES (X86)\WINDOWS KITS\10\INCLUDE\10.0.10240.0\UCRT\MATH.H
C:\PROGRAM FILES (X86)\MICROSOFT VISUAL STUDIO 14.0\VC\INCLUDE\XTGMATH.H
C:\PROGRAM FILES (X86)\MICROSOFT VISUAL STUDIO 14.0\VC\INCLUDE\XTR1COMMON
C:\PROGRAM FILES (X86)\MICROSOFT VISUAL STUDIO 14.0\VC\INCLUDE\CWCHAR
C:\PROGRAM FILES (X86)\MICROSOFT VISUAL STUDIO 14.0\VC\INCLUDE\XSTDDEF
C:\PROGRAM FILES (X86)\MICROSOFT VISUAL STUDIO 14.0\VC\INCLUDE\CSTDDEF
C:\PROGRAM FILES (X86)\MICROSOFT VISUAL STUDIO 14.0\VC\INCLUDE\INITIALIZER_LIST
C:\PROGRAM FILES (X86)\MICROSOFT VISUAL STUDIO 14.0\VC\INCLUDE\NEW
C:\PROGRAM FILES (X86)\MICROSOFT VISUAL STUDIO 14.0\VC\INCLUDE\EXCEPTION
C:\PROGRAM FILES (X86)\MICROSOFT VISUAL STUDIO 14.0\VC\INCLUDE\TYPE_TRAITS
C:\PROGRAM FILES (X86)\MICROSOFT VISUAL STUDIO 14.0\VC\INCLUDE\VCRUNTIME_EXCEPTION.H
C:\PROGRAM FILES (X86)\MICROSOFT VISUAL STUDIO 14.0\VC\INCLUDE\EH.H
C:\PROGRAM FILES (X86)\WINDOWS KITS\10\INCLUDE\10.0.10240.0\UCRT\CORECRT_TERMINATE.H
C:\PROGRAM FILES (X86)\MICROSOFT VISUAL STUDIO 14.0\VC\INCLUDE\XUTILITY
C:\PROGRAM FILES (X86)\MICROSOFT VISUAL STUDIO 14.0\VC\INCLUDE\UTILITY
C:\PROGRAM FILES (X86)\MICROSOFT VISUAL STUDIO 14.0\VC\INCLUDE\IOSFWD
C:\PROGRAM FILES (X86)\MICROSOFT VISUAL STUDIO 14.0\VC\INCLUDE\CSTDIO
C:\PROGRAM FILES (X86)\MICROSOFT VISUAL STUDIO 14.0\VC\INCLUDE\CSTRING
C:\PROGRAM FILES (X86)\MICROSOFT VISUAL STUDIO 14.0\VC\INCLUDE\XATOMIC0.H
C:\PROGRAM FILES (X86)\MICROSOFT VISUAL STUDIO 14.0\VC\INCLUDE\STDEXCEPT
C:\PROGRAM FILES (X86)\MICROSOFT VISUAL STUDIO 14.0\VC\INCLUDE\XSTRING
^D:\PROJECTS\DMPRINTERTEST\TXPRINTERTEST\SENDHEXDATA.CPP
D:\PROJECTS\DMPRINTERTEST\TXPRINTERTEST\RELEASE\打印测试程序.PCH
D:\PROJECTS\DMPRINTERTEST\TXPRINTERTEST\TXPRINTERTEST.H
D:\PROJECTS\DMPRINTERTEST\TXPRINTERTEST\RESOURCE.H
D:\PROJECTS\DMPRINTERTEST\TXPRINTERTEST\SENDHEXDATA.H
C:\PROGRAM FILES (X86)\MICROSOFT VISUAL STUDIO 14.0\VC\INCLUDE\VECTOR
C:\PROGRAM FILES (X86)\MICROSOFT VISUAL STUDIO 14.0\VC\INCLUDE\XMEMORY
C:\PROGRAM FILES (X86)\MICROSOFT VISUAL STUDIO 14.0\VC\INCLUDE\XMEMORY0
C:\PROGRAM FILES (X86)\MICROSOFT VISUAL STUDIO 14.0\VC\INCLUDE\CSTDINT
C:\PROGRAM FILES (X86)\MICROSOFT VISUAL STUDIO 14.0\VC\INCLUDE\YVALS.H
C:\PROGRAM FILES (X86)\MICROSOFT VISUAL STUDIO 14.0\VC\INCLUDE\XKEYCHECK.H
C:\PROGRAM FILES (X86)\MICROSOFT VISUAL STUDIO 14.0\VC\INCLUDE\CRTDEFS.H
C:\PROGRAM FILES (X86)\MICROSOFT VISUAL STUDIO 14.0\VC\INCLUDE\VCRUNTIME.H
C:\PROGRAM FILES (X86)\MICROSOFT VISUAL STUDIO 14.0\VC\INCLUDE\USE_ANSI.H
C:\PROGRAM FILES (X86)\MICROSOFT VISUAL STUDIO 14.0\VC\INCLUDE\STDINT.H
C:\PROGRAM FILES (X86)\MICROSOFT VISUAL STUDIO 14.0\VC\INCLUDE\CSTDLIB
C:\PROGRAM FILES (X86)\MICROSOFT VISUAL STUDIO 14.0\VC\INCLUDE\LIMITS
C:\PROGRAM FILES (X86)\MICROSOFT VISUAL STUDIO 14.0\VC\INCLUDE\YMATH.H
C:\PROGRAM FILES (X86)\MICROSOFT VISUAL STUDIO 14.0\VC\INCLUDE\CFLOAT
C:\PROGRAM FILES (X86)\MICROSOFT VISUAL STUDIO 14.0\VC\INCLUDE\CLIMITS
C:\PROGRAM FILES (X86)\MICROSOFT VISUAL STUDIO 14.0\VC\INCLUDE\CMATH
C:\PROGRAM FILES (X86)\WINDOWS KITS\10\INCLUDE\10.0.10240.0\UCRT\MATH.H
C:\PROGRAM FILES (X86)\MICROSOFT VISUAL STUDIO 14.0\VC\INCLUDE\XTGMATH.H
C:\PROGRAM FILES (X86)\MICROSOFT VISUAL STUDIO 14.0\VC\INCLUDE\XTR1COMMON
C:\PROGRAM FILES (X86)\MICROSOFT VISUAL STUDIO 14.0\VC\INCLUDE\CWCHAR
C:\PROGRAM FILES (X86)\MICROSOFT VISUAL STUDIO 14.0\VC\INCLUDE\XSTDDEF
C:\PROGRAM FILES (X86)\MICROSOFT VISUAL STUDIO 14.0\VC\INCLUDE\CSTDDEF
C:\PROGRAM FILES (X86)\MICROSOFT VISUAL STUDIO 14.0\VC\INCLUDE\INITIALIZER_LIST
C:\PROGRAM FILES (X86)\MICROSOFT VISUAL STUDIO 14.0\VC\INCLUDE\NEW
C:\PROGRAM FILES (X86)\MICROSOFT VISUAL STUDIO 14.0\VC\INCLUDE\EXCEPTION
C:\PROGRAM FILES (X86)\MICROSOFT VISUAL STUDIO 14.0\VC\INCLUDE\TYPE_TRAITS
C:\PROGRAM FILES (X86)\MICROSOFT VISUAL STUDIO 14.0\VC\INCLUDE\VCRUNTIME_EXCEPTION.H
C:\PROGRAM FILES (X86)\MICROSOFT VISUAL STUDIO 14.0\VC\INCLUDE\EH.H
C:\PROGRAM FILES (X86)\WINDOWS KITS\10\INCLUDE\10.0.10240.0\UCRT\CORECRT_TERMINATE.H
C:\PROGRAM FILES (X86)\MICROSOFT VISUAL STUDIO 14.0\VC\INCLUDE\XUTILITY
C:\PROGRAM FILES (X86)\MICROSOFT VISUAL STUDIO 14.0\VC\INCLUDE\UTILITY
C:\PROGRAM FILES (X86)\MICROSOFT VISUAL STUDIO 14.0\VC\INCLUDE\IOSFWD
C:\PROGRAM FILES (X86)\MICROSOFT VISUAL STUDIO 14.0\VC\INCLUDE\CSTDIO
C:\PROGRAM FILES (X86)\MICROSOFT VISUAL STUDIO 14.0\VC\INCLUDE\CSTRING
C:\PROGRAM FILES (X86)\MICROSOFT VISUAL STUDIO 14.0\VC\INCLUDE\XATOMIC0.H
C:\PROGRAM FILES (X86)\MICROSOFT VISUAL STUDIO 14.0\VC\INCLUDE\STDEXCEPT
C:\PROGRAM FILES (X86)\MICROSOFT VISUAL STUDIO 14.0\VC\INCLUDE\XSTRING
D:\PROJECTS\DMPRINTERTEST\TXPRINTERTEST\EXPORT.H
^D:\PROJECTS\DMPRINTERTEST\TXPRINTERTEST\TXPRINTERTEST.CPP
D:\PROJECTS\DMPRINTERTEST\TXPRINTERTEST\RELEASE\打印测试程序.PCH
D:\PROJECTS\DMPRINTERTEST\TXPRINTERTEST\TXPRINTERTEST.H
D:\PROJECTS\DMPRINTERTEST\TXPRINTERTEST\RESOURCE.H
D:\PROJECTS\DMPRINTERTEST\TXPRINTERTEST\TXPRINTERTESTDLG.H
D:\PROJECTS\DMPRINTERTEST\TXPRINTERTEST\EXPORT.H
D:\PROJECTS\DMPRINTERTEST\TXPRINTERTEST\SENDHEXDATA.H
D:\PROJECTS\DMPRINTERTEST\TXPRINTERTEST\DENDLG.H
^D:\PROJECTS\DMPRINTERTEST\TXPRINTERTEST\TXPRINTERTESTDLG.CPP
D:\PROJECTS\DMPRINTERTEST\TXPRINTERTEST\RELEASE\打印测试程序.PCH
D:\PROJECTS\DMPRINTERTEST\TXPRINTERTEST\TXPRINTERTEST.H
D:\PROJECTS\DMPRINTERTEST\TXPRINTERTEST\RESOURCE.H
D:\PROJECTS\DMPRINTERTEST\TXPRINTERTEST\TXPRINTERTESTDLG.H
D:\PROJECTS\DMPRINTERTEST\TXPRINTERTEST\EXPORT.H
D:\PROJECTS\DMPRINTERTEST\TXPRINTERTEST\SENDHEXDATA.H
D:\PROJECTS\DMPRINTERTEST\TXPRINTERTEST\DENDLG.H
C:\PROGRAM FILES (X86)\MICROSOFT VISUAL STUDIO 14.0\VC\INCLUDE\EXCEPTION
C:\PROGRAM FILES (X86)\MICROSOFT VISUAL STUDIO 14.0\VC\INCLUDE\TYPE_TRAITS
C:\PROGRAM FILES (X86)\MICROSOFT VISUAL STUDIO 14.0\VC\INCLUDE\XSTDDEF
C:\PROGRAM FILES (X86)\MICROSOFT VISUAL STUDIO 14.0\VC\INCLUDE\CSTDDEF
C:\PROGRAM FILES (X86)\MICROSOFT VISUAL STUDIO 14.0\VC\INCLUDE\YVALS.H
C:\PROGRAM FILES (X86)\MICROSOFT VISUAL STUDIO 14.0\VC\INCLUDE\XKEYCHECK.H
C:\PROGRAM FILES (X86)\MICROSOFT VISUAL STUDIO 14.0\VC\INCLUDE\CRTDEFS.H
C:\PROGRAM FILES (X86)\MICROSOFT VISUAL STUDIO 14.0\VC\INCLUDE\VCRUNTIME.H
C:\PROGRAM FILES (X86)\MICROSOFT VISUAL STUDIO 14.0\VC\INCLUDE\USE_ANSI.H
C:\PROGRAM FILES (X86)\MICROSOFT VISUAL STUDIO 14.0\VC\INCLUDE\CSTDLIB
C:\PROGRAM FILES (X86)\MICROSOFT VISUAL STUDIO 14.0\VC\INCLUDE\INITIALIZER_LIST
C:\PROGRAM FILES (X86)\MICROSOFT VISUAL STUDIO 14.0\VC\INCLUDE\XTR1COMMON
C:\PROGRAM FILES (X86)\MICROSOFT VISUAL STUDIO 14.0\VC\INCLUDE\VCRUNTIME_EXCEPTION.H
C:\PROGRAM FILES (X86)\MICROSOFT VISUAL STUDIO 14.0\VC\INCLUDE\EH.H
C:\PROGRAM FILES (X86)\WINDOWS KITS\10\INCLUDE\10.0.10240.0\UCRT\CORECRT_TERMINATE.H
C:\PROGRAM FILES (X86)\MICROSOFT VISUAL STUDIO 14.0\VC\INCLUDE\VECTOR
C:\PROGRAM FILES (X86)\MICROSOFT VISUAL STUDIO 14.0\VC\INCLUDE\XMEMORY
C:\PROGRAM FILES (X86)\MICROSOFT VISUAL STUDIO 14.0\VC\INCLUDE\XMEMORY0
C:\PROGRAM FILES (X86)\MICROSOFT VISUAL STUDIO 14.0\VC\INCLUDE\CSTDINT
C:\PROGRAM FILES (X86)\MICROSOFT VISUAL STUDIO 14.0\VC\INCLUDE\STDINT.H
C:\PROGRAM FILES (X86)\MICROSOFT VISUAL STUDIO 14.0\VC\INCLUDE\LIMITS
C:\PROGRAM FILES (X86)\MICROSOFT VISUAL STUDIO 14.0\VC\INCLUDE\YMATH.H
C:\PROGRAM FILES (X86)\MICROSOFT VISUAL STUDIO 14.0\VC\INCLUDE\CFLOAT
C:\PROGRAM FILES (X86)\MICROSOFT VISUAL STUDIO 14.0\VC\INCLUDE\CLIMITS
C:\PROGRAM FILES (X86)\MICROSOFT VISUAL STUDIO 14.0\VC\INCLUDE\CMATH
C:\PROGRAM FILES (X86)\WINDOWS KITS\10\INCLUDE\10.0.10240.0\UCRT\MATH.H
C:\PROGRAM FILES (X86)\MICROSOFT VISUAL STUDIO 14.0\VC\INCLUDE\XTGMATH.H
C:\PROGRAM FILES (X86)\MICROSOFT VISUAL STUDIO 14.0\VC\INCLUDE\CWCHAR
C:\PROGRAM FILES (X86)\MICROSOFT VISUAL STUDIO 14.0\VC\INCLUDE\NEW
C:\PROGRAM FILES (X86)\MICROSOFT VISUAL STUDIO 14.0\VC\INCLUDE\XUTILITY
C:\PROGRAM FILES (X86)\MICROSOFT VISUAL STUDIO 14.0\VC\INCLUDE\UTILITY
C:\PROGRAM FILES (X86)\MICROSOFT VISUAL STUDIO 14.0\VC\INCLUDE\IOSFWD
C:\PROGRAM FILES (X86)\MICROSOFT VISUAL STUDIO 14.0\VC\INCLUDE\CSTDIO
C:\PROGRAM FILES (X86)\MICROSOFT VISUAL STUDIO 14.0\VC\INCLUDE\CSTRING
C:\PROGRAM FILES (X86)\MICROSOFT VISUAL STUDIO 14.0\VC\INCLUDE\XATOMIC0.H
C:\PROGRAM FILES (X86)\MICROSOFT VISUAL STUDIO 14.0\VC\INCLUDE\STDEXCEPT
C:\PROGRAM FILES (X86)\MICROSOFT VISUAL STUDIO 14.0\VC\INCLUDE\XSTRING
