^D:\PROJECTS\DMPRINTERTEST\TXPRINTERTEST\STDAFX.CPP
D:\PROJECTS\DMPRINTERTEST\TXPRINTERTEST\RELEASE\打印测试程序.PCH
D:\PROJECTS\DMPRINTERTEST\TXPRINTERTEST\RELEASE\VC140.PDB
D:\PROJECTS\DMPRINTERTEST\TXPRINTERTEST\RELEASE\STDAFX.OBJ
^D:\PROJECTS\DMPRINTERTEST\TXPRINTERTEST\DENDLG.CPP|D:\PROJECTS\DMPRINTERTEST\TXPRINTERTEST\SENDHEXDATA.CPP|D:\PROJECTS\DMPRINTERTEST\TXPRINTERTEST\TXPRINTERTEST.CPP|D:\PROJECTS\DMPRINTERTEST\TXPRINTERTEST\TXPRINTERTESTDLG.CPP
D:\PROJECTS\DMPRINTERTEST\TXPRINTERTEST\RELEASE\VC140.PDB
D:\PROJECTS\DMPRINTERTEST\TXPRINTERTEST\RELEASE\TXPRINTERTESTDLG.OBJ
D:\PROJECTS\DMPRINTERTEST\TXPRINTERTEST\RELEASE\TXPRINTERTEST.OBJ
D:\PROJECTS\DMPRINTERTEST\TXPRINTERTEST\RELEASE\SENDHEXDATA.OBJ
D:\PROJECTS\DMPRINTERTEST\TXPRINTERTEST\RELEASE\DENDLG.OBJ
^D:\PROJECTS\DMPRINTERTEST\TXPRINTERTEST\DENDLG.CPP
D:\PROJECTS\DMPRINTERTEST\TXPRINTERTEST\RELEASE\VC140.PDB
^D:\PROJECTS\DMPRINTERTEST\TXPRINTERTEST\SENDHEXDATA.CPP
D:\PROJECTS\DMPRINTERTEST\TXPRINTERTEST\RELEASE\VC140.PDB
^D:\PROJECTS\DMPRINTERTEST\TXPRINTERTEST\TXPRINTERTEST.CPP
D:\PROJECTS\DMPRINTERTEST\TXPRINTERTEST\RELEASE\VC140.PDB
^D:\PROJECTS\DMPRINTERTEST\TXPRINTERTEST\TXPRINTERTESTDLG.CPP
D:\PROJECTS\DMPRINTERTEST\TXPRINTERTEST\RELEASE\VC140.PDB
