^D:\PROJECTS\DMPRINTERTEST\TXPRINTERTEST\RELEASE\DENDLG.OBJ|D:\PROJECTS\DMPRINTERTEST\TXPRINTERTEST\RELEASE\SENDHEXDATA.OBJ|D:\PROJECTS\DMPRINTERTEST\TXPRINTERTEST\RELEASE\STDAFX.OBJ|D:\PROJECTS\DMPRINTERTEST\TXPRINTERTEST\RELEASE\TXPRINTERTEST.OBJ|D:\PROJECTS\DMPRINTERTEST\TXPRINTERTEST\RELEASE\TXPRINTERTEST.RES|D:\PROJECTS\DMPRINTERTEST\TXPRINTERTEST\RELEASE\TXPRINTERTESTDLG.OBJ
D:\PROJECTS\DMPRINTERTEST\RELEASE\打印测试程序.EXE
D:\PROJECTS\DMPRINTERTEST\RELEASE\打印测试程序.IPDB
D:\PROJECTS\DMPRINTERTEST\RELEASE\打印测试程序.IOBJ
D:\PROJECTS\DMPRINTERTEST\RELEASE\打印测试程序.PDB
